\relax 
\providecommand\hyper@newdestlabel[2]{}
\providecommand\HyperFirstAtBeginDocument{\AtBeginDocument}
\HyperFirstAtBeginDocument{\ifx\hyper@anchor\@undefined
\global\let\oldcontentsline\contentsline
\gdef\contentsline#1#2#3#4{\oldcontentsline{#1}{#2}{#3}}
\global\let\oldnewlabel\newlabel
\gdef\newlabel#1#2{\newlabelxx{#1}#2}
\gdef\newlabelxx#1#2#3#4#5#6{\oldnewlabel{#1}{{#2}{#3}}}
\AtEndDocument{\ifx\hyper@anchor\@undefined
\let\contentsline\oldcontentsline
\let\newlabel\oldnewlabel
\fi}
\fi}
\global\let\hyper@last\relax 
\gdef\HyperFirstAtBeginDocument#1{#1}
\providecommand\HyField@AuxAddToFields[1]{}
\providecommand\HyField@AuxAddToCoFields[2]{}
\@writefile{nav}{\headcommand {\slideentry {0}{0}{1}{1/1}{}{0}}}
\@writefile{nav}{\headcommand {\beamer@framepages {1}{1}}}
\@writefile{toc}{\beamer@sectionintoc {1}{What Can Happen at a Critical Point?}{2}{0}{1}}
\@writefile{nav}{\headcommand {\beamer@sectionpages {1}{1}}}
\@writefile{nav}{\headcommand {\beamer@subsectionpages {1}{1}}}
\@writefile{nav}{\headcommand {\sectionentry {1}{What Can Happen at a Critical Point?}{2}{What Can Happen at a Critical Point?}{0}}}
\@writefile{nav}{\headcommand {\slideentry {1}{0}{1}{2/2}{}{0}}}
\@writefile{nav}{\headcommand {\beamer@framepages {2}{2}}}
\@writefile{nav}{\headcommand {\slideentry {1}{0}{2}{3/9}{}{0}}}
\@writefile{nav}{\headcommand {\beamer@framepages {3}{9}}}
\@writefile{nav}{\headcommand {\slideentry {1}{0}{3}{10/12}{}{0}}}
\@writefile{nav}{\headcommand {\beamer@framepages {10}{12}}}
\@writefile{nav}{\headcommand {\slideentry {1}{0}{4}{13/13}{}{0}}}
\@writefile{nav}{\headcommand {\beamer@framepages {13}{13}}}
\@writefile{nav}{\headcommand {\slideentry {1}{0}{5}{14/19}{}{0}}}
\@writefile{nav}{\headcommand {\beamer@framepages {14}{19}}}
\@writefile{nav}{\headcommand {\slideentry {1}{0}{6}{20/20}{}{0}}}
\@writefile{nav}{\headcommand {\beamer@framepages {20}{20}}}
\@writefile{nav}{\headcommand {\slideentry {1}{0}{7}{21/27}{}{0}}}
\@writefile{nav}{\headcommand {\beamer@framepages {21}{27}}}
\@writefile{nav}{\headcommand {\slideentry {1}{0}{8}{28/29}{}{0}}}
\@writefile{nav}{\headcommand {\beamer@framepages {28}{29}}}
\@writefile{toc}{\beamer@sectionintoc {2}{What Does $g'(c)>0$ Mean?}{30}{0}{2}}
\@writefile{nav}{\headcommand {\beamer@sectionpages {2}{29}}}
\@writefile{nav}{\headcommand {\beamer@subsectionpages {2}{29}}}
\@writefile{nav}{\headcommand {\sectionentry {2}{What Does $g'(c)>0$ Mean?}{30}{What Does $g'(c)>0$ Mean?}{0}}}
\@writefile{nav}{\headcommand {\slideentry {2}{0}{1}{30/30}{}{0}}}
\@writefile{nav}{\headcommand {\beamer@framepages {30}{30}}}
\@writefile{nav}{\headcommand {\slideentry {2}{0}{2}{31/36}{}{0}}}
\@writefile{nav}{\headcommand {\beamer@framepages {31}{36}}}
\@writefile{nav}{\headcommand {\slideentry {2}{0}{3}{37/37}{}{0}}}
\@writefile{nav}{\headcommand {\beamer@framepages {37}{37}}}
\@writefile{nav}{\headcommand {\slideentry {2}{0}{4}{38/39}{}{0}}}
\@writefile{nav}{\headcommand {\beamer@framepages {38}{39}}}
\@writefile{toc}{\beamer@sectionintoc {3}{Further Work}{40}{0}{3}}
\@writefile{nav}{\headcommand {\beamer@sectionpages {30}{39}}}
\@writefile{nav}{\headcommand {\beamer@subsectionpages {30}{39}}}
\@writefile{nav}{\headcommand {\sectionentry {3}{Further Work}{40}{Further Work}{0}}}
\@writefile{nav}{\headcommand {\slideentry {3}{0}{1}{40/40}{}{0}}}
\@writefile{nav}{\headcommand {\beamer@framepages {40}{40}}}
\citation{Goldbach1742}
\@writefile{nav}{\headcommand {\slideentry {3}{0}{2}{41/41}{}{0}}}
\@writefile{nav}{\headcommand {\beamer@framepages {41}{41}}}
\bibcite{Goldbach1742}{\hyperlink {beamerbibGoldbach1742}{1}}
\@writefile{nav}{\headcommand {\beamer@partpages {1}{42}}}
\@writefile{nav}{\headcommand {\beamer@subsectionpages {40}{42}}}
\@writefile{nav}{\headcommand {\beamer@sectionpages {40}{42}}}
\@writefile{nav}{\headcommand {\beamer@documentpages {42}}}
\@writefile{nav}{\headcommand {\gdef \inserttotalframenumber {15}}}
