\headcommand {\slideentry {0}{0}{1}{1/1}{}{0}}
\headcommand {\beamer@framepages {1}{1}}
\headcommand {\beamer@sectionpages {1}{1}}
\headcommand {\beamer@subsectionpages {1}{1}}
\headcommand {\sectionentry {1}{What Can Happen at a Critical Point?}{2}{What Can Happen at a Critical Point?}{0}}
\headcommand {\slideentry {1}{0}{1}{2/2}{}{0}}
\headcommand {\beamer@framepages {2}{2}}
\headcommand {\slideentry {1}{0}{2}{3/9}{}{0}}
\headcommand {\beamer@framepages {3}{9}}
\headcommand {\slideentry {1}{0}{3}{10/12}{}{0}}
\headcommand {\beamer@framepages {10}{12}}
\headcommand {\slideentry {1}{0}{4}{13/13}{}{0}}
\headcommand {\beamer@framepages {13}{13}}
\headcommand {\slideentry {1}{0}{5}{14/19}{}{0}}
\headcommand {\beamer@framepages {14}{19}}
\headcommand {\slideentry {1}{0}{6}{20/20}{}{0}}
\headcommand {\beamer@framepages {20}{20}}
\headcommand {\slideentry {1}{0}{7}{21/27}{}{0}}
\headcommand {\beamer@framepages {21}{27}}
\headcommand {\slideentry {1}{0}{8}{28/29}{}{0}}
\headcommand {\beamer@framepages {28}{29}}
\headcommand {\beamer@sectionpages {2}{29}}
\headcommand {\beamer@subsectionpages {2}{29}}
\headcommand {\sectionentry {2}{What Does $g'(c)>0$ Mean?}{30}{What Does $g'(c)>0$ Mean?}{0}}
\headcommand {\slideentry {2}{0}{1}{30/30}{}{0}}
\headcommand {\beamer@framepages {30}{30}}
\headcommand {\slideentry {2}{0}{2}{31/36}{}{0}}
\headcommand {\beamer@framepages {31}{36}}
\headcommand {\slideentry {2}{0}{3}{37/37}{}{0}}
\headcommand {\beamer@framepages {37}{37}}
\headcommand {\slideentry {2}{0}{4}{38/39}{}{0}}
\headcommand {\beamer@framepages {38}{39}}
\headcommand {\beamer@sectionpages {30}{39}}
\headcommand {\beamer@subsectionpages {30}{39}}
\headcommand {\sectionentry {3}{Further Work}{40}{Further Work}{0}}
\headcommand {\slideentry {3}{0}{1}{40/40}{}{0}}
\headcommand {\beamer@framepages {40}{40}}
\headcommand {\slideentry {3}{0}{2}{41/41}{}{0}}
\headcommand {\beamer@framepages {41}{41}}
\headcommand {\beamer@partpages {1}{42}}
\headcommand {\beamer@subsectionpages {40}{42}}
\headcommand {\beamer@sectionpages {40}{42}}
\headcommand {\beamer@documentpages {42}}
\headcommand {\gdef \inserttotalframenumber {15}}
